[gd_scene load_steps=4 format=2]

[ext_resource path="res://Scripts/Obstacle.gd" type="Script" id=1]
[ext_resource path="res://Assets/Obstacles/lighttubes_jump.png" type="Texture" id=2]

[sub_resource type="RectangleShape2D" id=1]

custom_solver_bias = 0.0
extents = Vector2( 32, 11 )

[node name="ObstacleJump" type="KinematicBody2D"]

z_index = -1
input_pickable = false
collision_layer = 0
collision_mask = 0
collision/safe_margin = 0.08
script = ExtResource( 1 )
_sections_unfolded = [ "Collision", "Material", "Transform", "Visibility", "Z Index", "collision" ]
__meta__ = {
"_edit_group_": true
}

[node name="Sprite" type="Sprite" parent="." index="0"]

texture = ExtResource( 2 )

[node name="Collision" type="CollisionShape2D" parent="." index="1"]

position = Vector2( 0, 21 )
shape = SubResource( 1 )
_sections_unfolded = [ "Transform" ]


